dump.vcd
$date
	Tue Oct 20 10:12:37 2020
$end

$version
	Synopsys VCS version L-2016.06_Full64
$end

$timescale
	1ps
$end

$comment Csum: 1 d7eb8fddf2506cd1 $end


$scope module $unit $end
$upscope $end


$scope module vramp $end
$var real 64 ! wrout $end
$var real 64 " wror $end
$upscope $end


$scope module top_tb $end
$var integer 32 # i $end
$var real 64 $ s $end
$var real 64 % maxv $end
$var real 64 & vwr $end
$var wire 1 ' fclk $end

$scope module th $end
$var reg 1 ( clk $end
$var reg 1 ) nreset $end

$scope begin unnamed$$_vcs_0 $end
$upscope $end


$scope begin unnamed$$_vcs_1 $end
$upscope $end


$scope begin unnamed$$_vcs_2 $end
$upscope $end


$scope begin unnamed$$_vcs_3 $end
$upscope $end


$scope module insgen_if_0 $end
$var reg 1 * clk $end
$var reg 1 + nreset $end
$var reg 32 , instr_bus [31:0] $end
$var reg 32 - pc_out [31:0] $end
$var reg 32 . adc_in [31:0] $end
$upscope $end


$scope module memw_if_0 $end
$var reg 1 / clk $end
$var reg 1 0 nreset $end
$var reg 1 1 mem_rw $end
$var reg 1 2 memclk $end
$var reg 4 3 mem_wstrobe [3:0] $end
$var reg 32 4 out_data_bus [31:0] $end
$var reg 32 5 out_addr_bus [31:0] $end
$var reg 32 6 out_data_bus_port2 [31:0] $end
$var reg 32 7 out_addr_bus_port2 [31:0] $end
$var reg 32 8 in_data_bus [31:0] $end
$upscope $end


$scope module uut $end
$var reg 1 9 clk $end
$var reg 1 : nreset $end
$var reg 32 ; instr_bus [31:0] $end
$var reg 32 < in_data_bus [31:0] $end
$var reg 32 = adc_in [31:0] $end
$var reg 1 > mem_rw $end
$var reg 4 ? mem_wstrobe [3:0] $end
$var reg 1 @ memclk $end
$var reg 32 A pc_out [31:0] $end
$var reg 32 B out_data_bus [31:0] $end
$var reg 32 C out_addr_bus [31:0] $end
$var reg 32 D out_data_bus_port2 [31:0] $end
$var reg 32 E out_addr_bus_port2 [31:0] $end

$scope module dut_top_inst $end
$var reg 1 F clk $end
$var reg 1 G nreset $end
$var reg 32 H instr_bus [31:0] $end
$var reg 32 I in_data_bus [31:0] $end
$var reg 32 J pc_out [31:0] $end
$var reg 1 K mem_rw $end
$var reg 4 L mem_wstrobe [3:0] $end
$var reg 1 M memclk $end
$var reg 32 N adc_in [31:0] $end
$var reg 32 O out_data_bus [31:0] $end
$var reg 32 P out_addr_bus [31:0] $end
$var reg 32 Q out_data_bus_port2 [31:0] $end
$var reg 32 R out_addr_bus_port2 [31:0] $end

$scope module vif $end
$var reg 1 S clk $end
$var reg 1 T nreset $end
$var reg 32 U si_address [31:0] $end
$var reg 32 V si_data [31:0] $end
$var reg 32 W so_data [31:0] $end
$var reg 1 X we $end
$var reg 1 Y exec $end
$var reg 1 Z fin $end

$scope task execute_write $end
$var reg 8 [ addr [7:0] $end
$var reg 32 \ data [31:0] $end
$upscope $end


$scope task execute_read $end
$var reg 8 ] addr [7:0] $end
$upscope $end

$upscope $end


$scope module axi_master_wrapper_inst $end
$var integer 32 ^ pstate $end
$var reg 32 _ adcdata [31:0] $end
$var integer 32 ` local_data $end
$var reg 1 a ready_for_data $end
$var reg 1 b ready_for_write_response $end
$var reg 1 c valid_read_data_received $end
$var reg 1 d valid_write_response_received $end
$var reg 1 e finread $end
$var reg 1 f finwrite $end

$scope module vif $end
$var reg 1 g AXI_ACLK $end
$var reg 1 h AXI_ARESETN $end
$var reg 32 i AXI_ARADDR [31:0] $end
$var reg 1 j AXI_ARVALID $end
$var reg 1 k AXI_ARREADY $end
$var reg 32 l AXI_RDATA [31:0] $end
$var reg 1 m AXI_RVALID $end
$var reg 1 n AXI_RREADY $end
$var reg 32 o AXI_AWADDR [31:0] $end
$var reg 1 p AXI_AWVALID $end
$var reg 1 q AXI_AWREADY $end
$var reg 32 r AXI_WDATA [31:0] $end
$var reg 1 s AXI_WVALID $end
$var reg 1 t AXI_WREADY $end
$var reg 1 u AXI_BVALID $end
$var reg 1 v AXI_BREADY $end
$var reg 3 w AXI_ARPROT [2:0] $end
$var reg 2 x AXI_RRESP [1:0] $end
$var reg 3 y AXI_AWPROT [2:0] $end
$var reg 4 z AXI_WSTRB [3:0] $end
$var reg 2 { AXI_BRESP [1:0] $end
$upscope $end


$scope module memslave_inst $end
$var reg 1 | valid_read_received $end
$var reg 1 } write_request_permitted $end
$upscope $end

$upscope $end


$scope module cpu_inst $end
$var wire 1 ~ clk $end
$var wire 1 "! nreset $end
$var reg 32 "" instr_bus [31:0] $end
$var reg 32 "# in_data_bus [31:0] $end
$var reg 1 "$ mem_rw $end
$var reg 4 "% mem_wstrobe [3:0] $end
$var reg 1 "& memclk $end
$var reg 32 "' pc_out [31:0] $end
$var reg 32 "( out_data_bus [31:0] $end
$var reg 32 ") out_addr_bus [31:0] $end
$var reg 32 "* out_data_bus_port2 [31:0] $end
$var reg 32 "+ out_addr_bus_port2 [31:0] $end
$var reg 32 ", pc [31:0] $end
$var reg 32 "- jump [31:0] $end
$var reg 1 ". take_branch $end
$var reg 1 "/ rd_w_en $end
$var reg 1 "0 on_branch_instrution $end
$var wire 1 "1 on_branch_instruction $end
$var reg 32 "2 rdbuffer [31:0] $end
$var reg 32 "3 gbuf [31:0] $end

$scope module mif $end
$var reg 1 "4 nreset $end
$var reg 32 "5 out_data_bus_port2 [31:0] $end
$var reg 32 "6 out_addr_bus_port2 [31:0] $end
$var reg 32 "7 mem_wdata [31:0] $end
$var reg 32 "8 mem_rdata [31:0] $end
$var reg 1 "9 mem_rw $end
$var reg 1 ": clk $end
$var reg 1 "; memclk $end
$var wire 32 "< rx0 [31:0] $end
$var wire 32 "= rx1 [31:0] $end
$var wire 32 "> rx2 [31:0] $end
$var wire 32 "? rx3 [31:0] $end
$var reg 32 "@ mem_addr [31:0] $end
$upscope $end


$scope module instruction $end
$var wire 7 "A opcode [6:0] $end
$var wire 5 "B rd [4:0] $end
$var wire 5 "C rs1 [4:0] $end
$var wire 5 "D rs2 [4:0] $end
$var wire 3 "E funct3 [2:0] $end
$var wire 12 "F i_imm [11:0] $end
$var wire 12 "G s_imm [11:0] $end
$var wire 12 "H b_imm [11:0] $end
$var wire 20 "I u_imm [19:0] $end
$var wire 20 "J j_imm [19:0] $end
$var wire 1 "K aluc $end
$var wire 1 "L ebit $end
$var integer 32 "M name $end
$var reg 32 "N instruction [31:0] $end
$var wire 7 "O funct7 [6:0] $end
$var wire 3 "P c_ubits [2:0] $end
$var wire 2 "Q c_lbits [1:0] $end
$var wire 1 "R c_12bit [0:0] $end
$var wire 2 "S c_umbits [1:0] $end
$var wire 2 "T c_lmbits [1:0] $end
$var reg 8 "U size [7:0] $end
$upscope $end


$scope module umem_inst $end
$var wire 3 "E insf3 [2:0] $end
$var reg 32 "V odb [31:0] $end
$var reg 32 "W odb2 [31:0] $end
$var reg 32 "X fixed_addr1 [31:0] $end
$var reg 32 "Y fixed_addr2 [31:0] $end
$var reg 32 "Z fixed_addr3 [31:0] $end
$var reg 32 "[ fixed_addr4 [31:0] $end
$upscope $end

$upscope $end


$scope module sindrv_inst $end
$var reg 32 "\ adc_in [31:0] $end
$var reg 8 "] raddr [7:0] $end
$var reg 1 "^ wstate $end
$var reg 1 "_ loop_finished $end
$var wire 8 "` rand_byte [7:0] $end
$var reg 8 "a curr_addr [7:0] $end
$var reg 8 "b target_addr [7:0] $end
$var reg 32 "c curr_data [31:0] $end
$var reg 8 "d curr_data_loop_addr [7:0] $end

$scope module genblk1[0].lfsr_insta $end
$var reg 1 "e clk $end
$var reg 1 "f nreset $end
$var reg 5 "g data [4:0] $end
$var reg 5 "h data_next [4:0] $end
$upscope $end


$scope module genblk1[1].lfsr_insta $end
$var reg 1 "i clk $end
$var reg 1 "j nreset $end
$var reg 5 "k data [4:0] $end
$var reg 5 "l data_next [4:0] $end
$upscope $end

$upscope $end


$scope module aximem_inst $end
$var reg 32 "m axi_mem_data [31:0] $end
$var reg 32 "n axi_mem_addr [31:0] $end
$var reg 1 "o axi_mem_w $end
$upscope $end

$upscope $end

$upscope $end

$upscope $end


$scope module amstop $end
$var wire 1 ' fclk $end
$var real 64 "p s $end
$var real 64 "q maxv $end
$var real 64 "r vwr $end
$var reg 1 "s clk $end
$var integer 32 "t i $end

$scope module svcc $end
$var wire 1 "u inclk $end
$var real 64 "v cval $end
$upscope $end


$scope module fm $end
$var reg 1 "w clk $end
$var real 64 "x freq $end
$var real 64 "y maxv $end
$var real 64 "z o $end
$var real 64 "{ m $end
$var real 64 "| te $end
$var integer 32 "} ti $end
$var integer 32 "~ snps_aevent_5_int $end
$upscope $end


$scope module v0 $end
$upscope $end


$scope module i4 $end
$upscope $end


$scope module i3 $end
$upscope $end


$scope module i3c $end
$upscope $end


$scope module i3c2 $end
$upscope $end


$scope module vr1 $end
$upscope $end


$scope module vr2 $end
$upscope $end


$scope module i6 $end
$upscope $end


$scope module dcblock $end
$upscope $end


$scope module i33 $end
$upscope $end


$scope module i34 $end
$upscope $end


$scope module i35 $end
$upscope $end


$scope module i32 $end
$upscope $end


$scope module vp $end
$var real 64 #! Vout $end
$var real 64 #" tend $end
$var real 64 ## rst $end
$upscope $end


$scope module cp1 $end
$upscope $end


$scope module cn1 $end
$upscope $end


$scope module dff1 $end
$upscope $end


$scope module dff2 $end
$upscope $end


$scope module runused $end
$upscope $end


$scope module ag1 $end
$upscope $end


$scope module pfdm1 $end
$upscope $end


$scope module pfdm2 $end
$upscope $end


$scope module rlpf $end
$upscope $end


$scope module clpf $end
$upscope $end


$scope module vref $end
$upscope $end


$scope module fdiv $end
$upscope $end

$upscope $end

$upscope $end

$enddefinitions $end

#0
$dumpvars
r0.000000000000000  "
r0.000000000000000  !
b00000000000000000000000000000000 #
r0.000000000000000  %
r0.000000000000000  $
r0.000000000000000  &
0"o
0(
xY
0Z
0+
0>
01
00
0)
0S
0T
xX
bxxxxxxxxxxxxxxxxxxxxxxxxxxxxxxxx .
b00000000000000000000000000000000 "n
b00000000000000000000000000000000 "m
bxxxxxxxxxxxxxxxxxxxxxxxxxxxxxxxx N
b00000000000000000000000000000000 I
bxxxxxxxxxxxxxxxxxxxxxxxxxxxxxxxx H
b0000 L
b00000000000000000000000000000000 P
b00000000000000000000000000000000 R
b00000000000000000000000000000000 O
b00000000000000000000000000000000 Q
b10000000000000000000000000000000 J
b00000000000000000000000000000000 <
bxxxxxxxxxxxxxxxxxxxxxxxxxxxxxxxx ,
b0000 ?
b00000000000000000000000000000000 8
b0000 3
b00000000000000000000000000000000 5
b00000000000000000000000000000000 7
b00000000000000000000000000000000 4
b00000000000000000000000000000000 6
b00000000000000000000000000000000 C
b00000000000000000000000000000000 E
b00000000000000000000000000000000 B
b00000000000000000000000000000000 D
b10000000000000000000000000000000 -
bxxxxxxxxxxxxxxxxxxxxxxxxxxxxxxxx U
bxxxxxxxxxxxxxxxxxxxxxxxxxxxxxxxx V
b00000000000000000000000000000000 W
bxxxxxxxxxxxxxxxxxxxxxxxxxxxxxxxx =
bxxxxxxxxxxxxxxxxxxxxxxxxxxxxxxxx ;
b10000000000000000000000000000000 A
b00000000 ]
b00000000 [
b00000000000000000000000000000000 \
0g
0h
0k
0j
0q
0p
0v
0u
0n
0m
0t
0s
0e
0f
0a
0b
0c
0d
b00000000000000000000000000000000 i
bxxx w
b00000000000000000000000000000000 o
bxxx y
bxx {
b00000000000000000000000000000000 l
bxx x
b00000000000000000000000000000000 r
bxxxx z
bxxxxxxxxxxxxxxxxxxxxxxxxxxxxxxxx _
b00000000000000000000000000000000 `
b00000000000000000000000000000000 ^
0|
0}
0"K
x"R
0"L
0"9
0"1
0"0
0"/
0".
b000000000000 "H
bxx "Q
bxx "T
bxxx "P
bxx "S
b0000000 "O
bxxxxxxxxxxxxxxxxxxxxxxxxxxxxxxxx "3
b000000000000 "F
b00000000000000000000000000000000 "#
bxxxxxxxxxxxxxxxxxxxxxxxxxxxxxxxx ""
bxxxxxxxxxxxxxxxxxxxxxxxxxxxxxxxx "N
b00000000000000000000 "J
b00000000000000000000000000000001 "-
b00000000000000000000000000000000 "8
bxxxxxxxxxxxxxxxxxxxxxxxxxxxxxxxx "7
b0000 "%
b00000000000000000000000000000000 "6
b00000000000000000000000000000000 "5
b00000000000000000000000000101000 "M
b0000000 "A
b00000000000000000000000000000000 ")
b00000000000000000000000000000000 "+
b00000000000000000000000000000000 "(
b00000000000000000000000000000000 "*
b10000000000000000000000000000000 ",
b10000000000000000000000000000000 "'
b00000 "B
bxxxxxxxxxxxxxxxxxxxxxxxxxxxxxxxx "2
b00000 "C
b00000 "D
bxxxxxxxxxxxxxxxxxxxxxxxxxxxxxxxx "<
bxxxxxxxxxxxxxxxxxxxxxxxxxxxxxxxx "=
bxxxxxxxxxxxxxxxxxxxxxxxxxxxxxxxx ">
bxxxxxxxxxxxxxxxxxxxxxxxxxxxxxxxx "?
b000000000000 "G
b00000000000000000000 "I
b00000000000000000000000000000000 "@
b00000010 "U
b00000000000000000000000000000000 "V
b00000000000000000000000000000000 "W
b00000000000000000000000000000000 "X
b00000000000000000000000000000001 "Y
b00000000000000000000000000000010 "Z
b00000000000000000000000000000011 "[
0"j
0"f
0"_
0"^
bxxxxxxxxxxxxxxxxxxxxxxxxxxxxxxxx "\
bxxxxxxxx "a
bxxxxxxxxxxxxxxxxxxxxxxxxxxxxxxxx "c
bxxxxxxxx "d
b11111 "g
b00110 "h
b11111 "k
b00110 "l
b00000000 "]
b11111111 "`
bxxxxxxxx "b
0"s
bxxxxxxxxxxxxxxxxxxxxxxxxxxxxxxxx "t
r0.000000000000000  "q
r0.000000000000000  "p
r0.000000000000000  "r
r0.000000000000000  "v
0"w
bxxxxxxxxxxxxxxxxxxxxxxxxxxxxxxxx "~
b00000000000000000000000000000000 "}
r0.000000000000000  "x
r0.000000000000000  "{
r0.000000000000000  "y
r0.000000000000000  "z
r0.000000000000000  "|
r0.000000000000000  #!
r0.000000000000000  ##
r0.000000000000000  #"
0:
0G
09
0F
0":
0";
0"&
0M
0@
02
0"$
0K
0"u
z'
0*
0/
0~
0"!
0"4
b000 "E
0"e
0"i
$end
#1000
r-0.8002040758166719  "
r-0.8002040758166719  !
b00000000000000000000000000000001 #
1"s
1"w
1"u
#2000
r-0.6002040758166711  "
r-0.6002040758166711  !
b00000000000000000000000000000010 #
0"s
0"w
0"u
#3000
r-0.4001907749331040  "
r-0.4001907749331040  !
r1.158063754256512  "{
r1.158063754256512  "y
r1.158063754256512  "q
r1.158063754256512  %
b00000000000000000000000000000011 #
1"s
1"w
1"u
#4000
r-0.2001907749331024  "
r-0.2001907749331024  !
r2776697241.951958  "z
r2776697241.951958  "x
r2776697241.951958  "p
r2776697241.951958  $
r1.162829547555550  "{
r1.162829547555550  "y
r1.162829547555550  "q
r1.162829547555550  %
b00000000000000000000000000000100 #
0"s
0"w
0"u
r2776697241.951958  "|
#5000
r-0.0001907749331031361  "
r-0.0001907749331031361  !
r4706730230.054725  "z
r4706730230.054725  "x
r4706730230.054725  "p
r4706730230.054725  $
r1.432855973233384  "{
r1.432855973233384  "y
r1.432855973233384  "q
r1.432855973233384  %
b00000000000000000000000000000101 #
1"s
1"w
1"u
r4706730230.054725  "|
#6000
r0.1998092250668934  "
r0.1998092250668934  !
r4869181040.009888  "z
r4869181040.009888  "x
r4869181040.009888  "p
r4869181040.009888  $
r1.549785831250642  "{
r1.549785831250642  "y
r1.549785831250642  "q
r1.549785831250642  %
b00000000000000000000000000000110 #
0"s
0"w
0"u
r4869181040.009888  "|
#7000
r0.3997972876707108  "
r0.3997972876707108  !
r4950624597.325097  "z
r4950624597.325097  "x
r4950624597.325097  "p
r4950624597.325097  $
r1.639388714112137  "{
r1.639388714112137  "y
r1.639388714112137  "q
r1.639388714112137  %
b00000000000000000000000000000111 #
1"s
1"w
1"u
r4950624597.325097  "|
#8000
r0.5997972876707096  "
r0.5997972876707096  !
r4970913335.678358  "z
r4970913335.678358  "x
r4970913335.678358  "p
r4970913335.678358  $
r1.674776851115563  "{
r1.674776851115563  "y
r1.674776851115563  "q
r1.674776851115563  %
b00000000000000000000000000001000 #
0"s
0"w
0"u
#9000
r0.7997972876707103  "
r0.7997972876707103  !
r4961667972.339131  "z
r4961667972.339131  "x
r4961667972.339131  "p
r4961667972.339131  $
r1.681172333181182  "{
r1.681172333181182  "y
r1.681172333181182  "q
r1.681172333181182  %
b00000000000000000000000000001001 #
1"s
1"w
1"u
#10000
1(
1*
1/
19
1F
1~
1":
1";
1"&
1M
1@
12
1S
1"e
1"i
1g
r0.9997972876707124  "
r0.9997972876707124  !
r4941540344.222203  "z
r4941540344.222203  "x
r4941540344.222203  "p
r4941540344.222203  $
r1.665043080355123  "{
r1.665043080355123  "y
r1.665043080355123  "q
r1.665043080355123  %
b00000000000000000000000000001010 #
0"s
0"w
0"u
b00000000 "a
b00000000 "b
b00000000 "d
1"_
#11000
r1.000000000000000  "
r1.000000000000000  !
r4926764911.747952  "z
r4926764911.747952  "x
r4926764911.747952  "p
r4926764911.747952  $
r1.658639857170813  "{
r1.658639857170813  "y
r1.658639857170813  "q
r1.658639857170813  %
b00000000000000000000000000001011 #
1"s
1"w
1"u
#12000
r4920234925.428368  "z
r4920234925.428368  "x
r4920234925.428368  "p
r4920234925.428368  $
r1.657909223094889  "{
r1.657909223094889  "y
r1.657909223094889  "q
r1.657909223094889  %
b00000000000000000000000000001100 #
0"s
0"w
0"u
#13000
r4915783298.761554  "z
r4915783298.761554  "x
r4915783298.761554  "p
r4915783298.761554  $
r1.653495520832619  "{
r1.653495520832619  "y
r1.653495520832619  "q
r1.653495520832619  %
b00000000000000000000000000001101 #
1"s
1"w
1"u
#14000
r4912697539.954387  "z
r4912697539.954387  "x
r4912697539.954387  "p
r4912697539.954387  $
r1.651329189033478  "{
r1.651329189033478  "y
r1.651329189033478  "q
r1.651329189033478  %
b00000000000000000000000000001110 #
0"s
0"w
0"u
#15000
1)
1:
1G
1"!
1"4
1T
1"f
1"j
1h
10
1+
r4912948126.334685  "z
r4912948126.334685  "x
r4912948126.334685  "p
r4912948126.334685  $
r1.651314179446088  "{
r1.651314179446088  "y
r1.651314179446088  "q
r1.651314179446088  %
b00000000000000000000000000001111 #
1"s
1"w
1"u
#16000
r4913336743.242296  "z
r4913336743.242296  "x
r4913336743.242296  "p
r4913336743.242296  $
r1.664798275128249  "{
r1.664798275128249  "y
r1.664798275128249  "q
r1.664798275128249  %
b00000000000000000000000000010000 #
0"s
0"w
0"u
#17000
r4913045190.308098  "z
r4913045190.308098  "x
r4913045190.308098  "p
r4913045190.308098  $
r1.668298030341463  "{
r1.668298030341463  "y
r1.668298030341463  "q
r1.668298030341463  %
b00000000000000000000000000010001 #
1"s
1"w
1"u
#18000
r4911969034.067971  "z
r4911969034.067971  "x
r4911969034.067971  "p
r4911969034.067971  $
r1.669733065836372  "{
r1.669733065836372  "y
r1.669733065836372  "q
r1.669733065836372  %
b00000000000000000000000000010010 #
0"s
0"w
0"u
#19000
r4911275249.195872  "z
r4911275249.195872  "x
r4911275249.195872  "p
r4911275249.195872  $
r1.670141452225166  "{
r1.670141452225166  "y
r1.670141452225166  "q
r1.670141452225166  %
b00000000000000000000000000010011 #
1"s
1"w
1"u
#20000
0(
0*
0/
09
0F
0~
0":
0";
0"&
0M
0@
02
0S
0"e
0"i
0g
r4911235523.853882  "z
r4911235523.853882  "x
r4911235523.853882  "p
r4911235523.853882  $
r1.665385743978726  "{
r1.665385743978726  "y
r1.665385743978726  "q
r1.665385743978726  %
b00000000000000000000000000010100 #
0"s
0"w
0"u
#21000
r4910777252.439496  "z
r4910777252.439496  "x
r4910777252.439496  "p
r4910777252.439496  $
r1.665031236974666  "{
r1.665031236974666  "y
r1.665031236974666  "q
r1.665031236974666  %
b00000000000000000000000000010101 #
1"s
1"w
1"u
#22000
r4910838794.735439  "z
r4910838794.735439  "x
r4910838794.735439  "p
r4910838794.735439  $
r1.661466540169331  "{
r1.661466540169331  "y
r1.661466540169331  "q
r1.661466540169331  %
b00000000000000000000000000010110 #
0"s
0"w
0"u
#23000
r4910112294.425916  "z
r4910112294.425916  "x
r4910112294.425916  "p
r4910112294.425916  $
r1.658239422775893  "{
r1.658239422775893  "y
r1.658239422775893  "q
r1.658239422775893  %
b00000000000000000000000000010111 #
1"s
1"w
1"u
#24000
r4911019151.553580  "z
r4911019151.553580  "x
r4911019151.553580  "p
r4911019151.553580  $
r1.665286152799358  "{
r1.665286152799358  "y
r1.665286152799358  "q
r1.665286152799358  %
b00000000000000000000000000011000 #
0"s
0"w
0"u
#25000
r4911219302.460495  "z
r4911219302.460495  "x
r4911219302.460495  "p
r4911219302.460495  $
r1.667278213816869  "{
r1.667278213816869  "y
r1.667278213816869  "q
r1.667278213816869  %
b00000000000000000000000000011001 #
1"s
1"w
1"u
#26000
r4910756909.836105  "z
r4910756909.836105  "x
r4910756909.836105  "p
r4910756909.836105  $
r1.664901287609299  "{
r1.664901287609299  "y
r1.664901287609299  "q
r1.664901287609299  %
b00000000000000000000000000011010 #
0"s
0"w
0"u
#27000
r4910455906.659245  "z
r4910455906.659245  "x
r4910455906.659245  "p
r4910455906.659245  $
r1.659765686580033  "{
r1.659765686580033  "y
r1.659765686580033  "q
r1.659765686580033  %
b00000000000000000000000000011011 #
1"s
1"w
1"u
#28000
r4909884886.556337  "z
r4909884886.556337  "x
r4909884886.556337  "p
r4909884886.556337  $
r1.650922135070463  "{
r1.650922135070463  "y
r1.650922135070463  "q
r1.650922135070463  %
b00000000000000000000000000011100 #
0"s
0"w
0"u
#29000
r4909599398.234703  "z
r4909599398.234703  "x
r4909599398.234703  "p
r4909599398.234703  $
r1.642725990482024  "{
r1.642725990482024  "y
r1.642725990482024  "q
r1.642725990482024  %
b00000000000000000000000000011101 #
1"s
1"w
1"u
#30000
1(
1*
1/
19
1F
1~
1":
1";
1"&
1M
1@
12
1S
1"e
1"i
1g
r4910667996.904887  "z
r4910667996.904887  "x
r4910667996.904887  "p
r4910667996.904887  $
r1.650484081615826  "{
r1.650484081615826  "y
r1.650484081615826  "q
r1.650484081615826  %
b00000000000000000000000000011110 #
0"s
0"w
0"u
b10000000000000000000000000000100 ",
b10000000000000000000000000000100 "'
b10000000000000000000000000000100 J
b10000000000000000000000000000100 A
b10000000000000000000000000000100 -
b00110 "g
b01101111 "`
b00110 "k
b01100110 "`
b00000001 "]
1"^
1X
b10100000000000000000000000000000 U
1Y
1a
1n
1b
1v
b10010 "h
b10010 "l
#31000
r4911721598.183869  "z
r4911721598.183869  "x
r4911721598.183869  "p
r4911721598.183869  $
r1.653812508905539  "{
r1.653812508905539  "y
r1.653812508905539  "q
r1.653812508905539  %
b00000000000000000000000000011111 #
1"s
1"w
1"u
#32000
r4910826159.717003  "z
r4910826159.717003  "x
r4910826159.717003  "p
r4910826159.717003  $
r1.652955672459033  "{
r1.652955672459033  "y
r1.652955672459033  "q
r1.652955672459033  %
b00000000000000000000000000100000 #
0"s
0"w
0"u
#33000
r4910965707.578443  "z
r4910965707.578443  "x
r4910965707.578443  "p
r4910965707.578443  $
r1.653515463666674  "{
r1.653515463666674  "y
r1.653515463666674  "q
r1.653515463666674  %
b00000000000000000000000000100001 #
1"s
1"w
1"u
#34000
r4911482069.607326  "z
r4911482069.607326  "x
r4911482069.607326  "p
r4911482069.607326  $
r1.655391870276771  "{
r1.655391870276771  "y
r1.655391870276771  "q
r1.655391870276771  %
b00000000000000000000000000100010 #
0"s
0"w
0"u
#35000
r4910912290.443210  "z
r4910912290.443210  "x
r4910912290.443210  "p
r4910912290.443210  $
r1.658025537787071  "{
r1.658025537787071  "y
r1.658025537787071  "q
r1.658025537787071  %
b00000000000000000000000000100011 #
1"s
1"w
1"u
#36000
r4910489879.777541  "z
r4910489879.777541  "x
r4910489879.777541  "p
r4910489879.777541  $
r1.663394974195994  "{
r1.663394974195994  "y
r1.663394974195994  "q
r1.663394974195994  %
b00000000000000000000000000100100 #
0"s
0"w
0"u
#37000
r4910124992.508368  "z
r4910124992.508368  "x
r4910124992.508368  "p
r4910124992.508368  $
r1.659333997916102  "{
r1.659333997916102  "y
r1.659333997916102  "q
r1.659333997916102  %
b00000000000000000000000000100101 #
1"s
1"w
1"u
#38000
r4910112416.939749  "z
r4910112416.939749  "x
r4910112416.939749  "p
r4910112416.939749  $
r1.655822908831847  "{
r1.655822908831847  "y
r1.655822908831847  "q
r1.655822908831847  %
b00000000000000000000000000100110 #
0"s
0"w
0"u
#39000
r4910175248.714844  "z
r4910175248.714844  "x
r4910175248.714844  "p
r4910175248.714844  $
r1.660862834386454  "{
r1.660862834386454  "y
r1.660862834386454  "q
r1.660862834386454  %
b00000000000000000000000000100111 #
1"s
1"w
1"u
#40000
0(
0*
0/
09
0F
0~
0":
0";
0"&
0M
0@
02
0S
0"e
0"i
0g
r4898242516.251482  "z
r4898242516.251482  "x
r4898242516.251482  "p
r4898242516.251482  $
r1.668024050235340  "{
r1.668024050235340  "y
r1.668024050235340  "q
r1.668024050235340  %
b00000000000000000000000000101000 #
0"s
0"w
0"u
r4898242516.251482  "|
#41000
r4909133945.016080  "z
r4909133945.016080  "x
r4909133945.016080  "p
r4909133945.016080  $
r1.660781606259362  "{
r1.660781606259362  "y
r1.660781606259362  "q
r1.660781606259362  %
b00000000000000000000000000101001 #
1"s
1"w
1"u
#42000
r4921398981.638141  "z
r4921398981.638141  "x
r4921398981.638141  "p
r4921398981.638141  $
r1.653734633143167  "{
r1.653734633143167  "y
r1.653734633143167  "q
r1.653734633143167  %
b00000000000000000000000000101010 #
0"s
0"w
0"u
#43000
r4909593008.020660  "z
r4909593008.020660  "x
r4909593008.020660  "p
r4909593008.020660  $
r1.653326313030595  "{
r1.653326313030595  "y
r1.653326313030595  "q
r1.653326313030595  %
b00000000000000000000000000101011 #
1"s
1"w
1"u
#44000
r4910295710.270516  "z
r4910295710.270516  "x
r4910295710.270516  "p
r4910295710.270516  $
r1.655370330237734  "{
r1.655370330237734  "y
r1.655370330237734  "q
r1.655370330237734  %
b00000000000000000000000000101100 #
0"s
0"w
0"u
#45000
r4910430801.172789  "z
r4910430801.172789  "x
r4910430801.172789  "p
r4910430801.172789  $
r1.659419675560824  "{
r1.659419675560824  "y
r1.659419675560824  "q
r1.659419675560824  %
b00000000000000000000000000101101 #
1"s
1"w
1"u
#46000
r4910728212.637288  "z
r4910728212.637288  "x
r4910728212.637288  "p
r4910728212.637288  $
r1.661946941389025  "{
r1.661946941389025  "y
r1.661946941389025  "q
r1.661946941389025  %
b00000000000000000000000000101110 #
0"s
0"w
0"u
#47000
r4908930602.730103  "z
r4908930602.730103  "x
r4908930602.730103  "p
r4908930602.730103  $
r1.648888979600265  "{
r1.648888979600265  "y
r1.648888979600265  "q
r1.648888979600265  %
b00000000000000000000000000101111 #
1"s
1"w
1"u
#48000
r4908583707.366158  "z
r4908583707.366158  "x
r4908583707.366158  "p
r4908583707.366158  $
r1.650856718040673  "{
r1.650856718040673  "y
r1.650856718040673  "q
r1.650856718040673  %
b00000000000000000000000000110000 #
0"s
0"w
0"u
#49000
r4910208392.398911  "z
r4910208392.398911  "x
r4910208392.398911  "p
r4910208392.398911  $
r1.656526826047668  "{
r1.656526826047668  "y
r1.656526826047668  "q
r1.656526826047668  %
b00000000000000000000000000110001 #
1"s
1"w
1"u
#50000
1(
1*
1/
19
1F
1~
1":
1";
1"&
1M
1@
12
1S
1"e
1"i
1g
r4910749284.222567  "z
r4910749284.222567  "x
r4910749284.222567  "p
r4910749284.222567  $
r1.664240306012962  "{
r1.664240306012962  "y
r1.664240306012962  "q
r1.664240306012962  %
b00000000000000000000000000110010 #
0"s
0"w
0"u
b10000000000000000000000000001000 ",
b10000000000000000000000000001000 "'
b10000000000000000000000000001000 J
b10000000000000000000000000001000 A
b10000000000000000000000000001000 -
b10010 "g
b00100110 "`
b10010 "k
b00100010 "`
b00000010 "]
b01100110 "a
b01100110 "b
0"_
0Y
b00000000000000000000000000000010 ^
b00010 "h
b00010 "l
#51000
r4910124973.932429  "z
r4910124973.932429  "x
r4910124973.932429  "p
r4910124973.932429  $
r1.661396826199489  "{
r1.661396826199489  "y
r1.661396826199489  "q
r1.661396826199489  %
b00000000000000000000000000110011 #
1"s
1"w
1"u
#52000
r4909131512.783282  "z
r4909131512.783282  "x
r4909131512.783282  "p
r4909131512.783282  $
r1.663279027431375  "{
r1.663279027431375  "y
r1.663279027431375  "q
r1.663279027431375  %
b00000000000000000000000000110100 #
0"s
0"w
0"u
#53000
r4909370292.137106  "z
r4909370292.137106  "x
r4909370292.137106  "p
r4909370292.137106  $
r1.658215916719518  "{
r1.658215916719518  "y
r1.658215916719518  "q
r1.658215916719518  %
b00000000000000000000000000110101 #
1"s
1"w
1"u
#54000
r4913579770.056829  "z
r4913579770.056829  "x
r4913579770.056829  "p
r4913579770.056829  $
r1.663190694512756  "{
r1.663190694512756  "y
r1.663190694512756  "q
r1.663190694512756  %
b00000000000000000000000000110110 #
0"s
0"w
0"u
#55000
r4909089442.132214  "z
r4909089442.132214  "x
r4909089442.132214  "p
r4909089442.132214  $
r1.663634807922315  "{
r1.663634807922315  "y
r1.663634807922315  "q
r1.663634807922315  %
b00000000000000000000000000110111 #
1"s
1"w
1"u
#56000
r4909095606.098208  "z
r4909095606.098208  "x
r4909095606.098208  "p
r4909095606.098208  $
r1.665856064088713  "{
r1.665856064088713  "y
r1.665856064088713  "q
r1.665856064088713  %
b00000000000000000000000000111000 #
0"s
0"w
0"u
#57000
r4909500900.125339  "z
r4909500900.125339  "x
r4909500900.125339  "p
r4909500900.125339  $
r1.667094828575507  "{
r1.667094828575507  "y
r1.667094828575507  "q
r1.667094828575507  %
b00000000000000000000000000111001 #
1"s
1"w
1"u
